Field,Description,Type,"Default Value"
netbox_api,"URL to the Netbox to be provisioned",string,"$NETBOX_<BUBBLE>_API (ie: $NETBOX_COP_API, $NETBOX_OVH_API, ...)"
netbox_internal_api,"URL to the Netbox from within the bubble",string,"http://netbox.ec.local:8080/"
netbox_token,"Authentication token for the Netbox to be provisioned",string,"$NETBOX_<BUBBLE>_TOKEN (ie: $NETBOX_COP_TOKEN, $NETBOX_OVH_TOKEN, ...)"
